<svg xmlns="http://www.w3.org/2000/svg" width="17" height="17" viewBox="0 0 17 17">
    <defs>
        <linearGradient id="a" x1="61.235%" x2="74.706%" y1="43.69%" y2="80.24%">
            <stop offset="0%" stop-color="#F3F3F3"/>
            <stop offset="100%" stop-color="#FFF"/>
        </linearGradient>
    </defs>
    <g fill="none" fill-rule="evenodd">
        <circle cx="8.5" cy="8.5" r="8.5" fill="#535353"/>
        <path fill="url(#a)" d="M6.526 10.28L9.86 12.89c.38.223.655.107.75-.374l1.358-6.78c.139-.591-.213-.86-.577-.684L3.42 8.31c-.544.231-.54.553-.099.696l2.046.677 4.736-3.167c.224-.144.429-.066.26.092"/>
    </g>
</svg>
